…
The most basic search uses just a keyword. This returns raw data with
list-columns for detailed analysis:

``` r
marketing_ads
#> # A tibble: 25 × 13
#>    ad_url       is_restricted restriction_details advertiser_name advertiser_url
#>    <chr>        <lgl>         <chr>               <chr>           <chr>         
#>  1 https://www… FALSE         <NA>                LinearB         https://www.l…
#>  2 https://www… FALSE         <NA>                Julie Yingst    https://www.l…
#>  3 https://www… FALSE         <NA>                LinearB         https://www.l…
#>  4 https://www… FALSE         <NA>                FORM Digital    https://www.l…
#>  5 https://www… FALSE         <NA>                FinListics Sol… https://www.l…
#>  6 https://www… FALSE         <NA>                Salesforce      https://www.l…
#>  7 https://www… FALSE         <NA>                HENNGE (North … https://www.l…
#>  8 https://www… FALSE         <NA>                LinearB         https://www.l…
#>  9 https://www… FALSE         <NA>                Splash (Splash… https://www.l…
#> 10 https://www… FALSE         <NA>                Aeqium          https://www.l…
#> # ℹ 15 more rows
#> # ℹ 8 more variables: ad_payer <chr>, ad_type <chr>,
#> #   first_impression_at <dttm>, latest_impression_at <dttm>,
#> #   total_impressions_from <int>, total_impressions_to <int>,
#> #   impressions_by_country <list>, ad_targeting <list>
```
…
tech_ads
#> # A tibble: 50 × 13
#>    ad_url       is_restricted restriction_details advertiser_name advertiser_url
#>    <chr>        <lgl>         <chr>               <chr>           <chr>         
#>  1 https://www… FALSE         <NA>                OpenText        https://www.l…
#>  2 https://www… FALSE         <NA>                Upwork          https://www.l…
#>  3 https://www… FALSE         <NA>                Detekt Biomedi… https://www.l…
#>  4 https://www… FALSE         <NA>                Web Summit      https://www.l…
#>  5 https://www… FALSE         <NA>                OpenText        https://www.l…
#>  6 https://www… FALSE         <NA>                Web Summit      https://www.l…
#>  7 https://www… FALSE         <NA>                ServiceNow      https://www.l…
#>  8 https://www… FALSE         <NA>                Web Summit      https://www.l…
#>  9 https://www… FALSE         <NA>                Web Summit      https://www.l…
#> 10 https://www… FALSE         <NA>                University of … https://www.l…
#> # ℹ 40 more rows
#> # ℹ 8 more variables: ad_payer <chr>, ad_type <chr>,
#> #   first_impression_at <dttm>, latest_impression_at <dttm>,
#> #   total_impressions_from <int>, total_impressions_to <int>,
#> #   impressions_by_country <list>, ad_targeting <list>
```
…
clean_long
#> # A tibble: 347 × 18
#>    ad_url       is_restricted restriction_details advertiser_name advertiser_url
#>    <chr>        <lgl>         <chr>               <chr>           <chr>         
#>  1 https://www… FALSE         <NA>                Codecov         https://www.l…
#>  2 https://www… FALSE         <NA>                Codecov         https://www.l…
#>  3 https://www… FALSE         <NA>                Codecov         https://www.l…
#>  4 https://www… FALSE         <NA>                Codecov         https://www.l…
#>  5 https://www… FALSE         <NA>                Codecov         https://www.l…
#>  6 https://www… FALSE         <NA>                Codecov         https://www.l…
#>  7 https://www… FALSE         <NA>                Codecov         https://www.l…
#>  8 https://www… FALSE         <NA>                Codecov         https://www.l…
#>  9 https://www… FALSE         <NA>                Codecov         https://www.l…
#> 10 https://www… FALSE         <NA>                Codecov         https://www.l…
#> # ℹ 337 more rows
#> # ℹ 13 more variables: ad_payer <chr>, ad_type <chr>,
#> #   first_impression_at <dttm>, latest_impression_at <dttm>,
#> #   total_impressions_from <int>, total_impressions_to <int>,
#> #   impressions_mid <dbl>, data_type <chr>, category <chr>, value <chr>,
#> #   is_included <lgl>, is_excluded <lgl>, percentage <dbl>
```
…
